…
|               | goal_pct_b |     gax_b |     ega_b | rb_post_xg_b | gen_post_xg_b |
|:--------------|-----------:|----------:|----------:|-------------:|--------------:|
| goal_pct_a    |  0.2860967 | 0.0409510 | 0.0257428 |    0.1449043 |     0.1456253 |
| gax_a         |  0.0373490 | 0.0514288 | 0.0195463 |   -0.0458517 |    -0.0546989 |
| ega_a         |  0.0019526 | 0.0365588 | 0.0183749 |   -0.0395099 |    -0.0310349 |
| rb_post_xg_a  |  0.2164462 | 0.0481730 | 0.0255283 |    0.2333471 |     0.2565853 |
| gen_post_xg_a |  0.2214890 | 0.0442887 | 0.0190876 |    0.2436387 |     0.2793804 |

``` r
stability_data |>
  dplyr::filter(n_a + n_b >= 50)
#> # A tibble: 75 x 16
#>    player Season first~1 rb_po~2 gen_p~3 goal_~4    gax_a    ega_a   n_a first~5
#>    <fct>   <int> <lgl>     <dbl>   <dbl>   <dbl>    <dbl>    <dbl> <int> <lgl>  
#>  1 Aleks~   2018 TRUE      0.143   0.140  0.192   0.0882   0.0334     26 FALSE  
#>  2 Aleks~   2019 TRUE      0.134   0.126  0.0938  0.0423   0.0199     32 FALSE  
#>  3 Alexa~   2019 TRUE      0.153   0.154  0.16    0.0592   0.0500     25 FALSE  
#>  4 Andre~   2018 TRUE      0.160   0.169  0.167   0.0104   0.0360     24 FALSE  
#>  5 Arthu~   2018 TRUE      0.140   0.140  0.16   -0.00140  0.0335     25 FALSE  
#>  6 Bradl~   2018 TRUE      0.137   0.136  0.269   0.0913   0.0676     26 FALSE  
#>  7 Brani~   2020 TRUE      0.135   0.130  0.133  -0.0304  -0.00890    30 FALSE  
#>  8 Bryan~   2018 TRUE      0.137   0.126  0.08   -0.0276  -0.00542    25 FALSE  
#>  9 Carlo~   2018 TRUE      0.142   0.134  0.111   0.0491   0.0122     27 FALSE  
#> 10 Carlo~   2019 TRUE      0.138   0.133  0.311   0.157    0.0655     45 FALSE  
#> # ... with 65 more rows, 6 more variables: rb_post_xg_b <dbl>,
#> #   gen_post_xg_b <dbl>, goal_pct_b <dbl>, gax_b <dbl>, ega_b <dbl>, n_b <int>,
#> #   and abbreviated variable names 1: first_half_season_a, 2: rb_post_xg_a,
#> #   3: gen_post_xg_a, 4: goal_pct_a, 5: first_half_season_b
```
…
